{
  "unicode-search:search-unicode-chars": [
    {
      "modifiers": [
        "Mod"
      ],
      "key": "U"
    }
  ],
  "graph:open-local": [
    {
      "modifiers": [
        "Mod"
      ],
      "key": "G"
    }
  ],
  "graph:open": [
    {
      "modifiers": [
        "Mod",
        "Shift"
      ],
      "key": "G"
    }
  ]
}